//Oct 23rd 2021 w/ GMS 2.2.5
+==============================+
|        Akurra Parser         |
+==============================+
Ready to import...
Importing data from "C:\Users\robbitay\Documents\MyStuff\Programming\GameMaker\TestProject1\data_files\data.win"...
Chunk[0]: "FORM" 86kB 804b bytes at (0x00000008-0x00015B2C)
Chunk[1]: "GEN8" 208b bytes at (0x00000010-0x000000E0)
Generation Info (208b at 0x00000010) expecting 128b:
Generation Info (68b at 0x0000009C) expecting 68b:
Chunk[2]: "OPTN" 88b bytes at (0x000000E8-0x00000140)
Chunk[3]: "LANG" 24b bytes at (0x00000148-0x00000160)
Chunk[4]: "EXTN" 8b bytes at (0x00000168-0x00000170)
Chunk[5]: "SOND" 8b bytes at (0x00000178-0x00000180)
  0 Sounds in this chunk
Chunk[6]: "AGRP" 24b bytes at (0x00000188-0x000001A0)
Chunk[7]: "SPRT" 17kB 744b bytes at (0x000001A8-0x00004890)
  1 Sprites in this chunk
Chunk[8]: "BGND" 1kB 72b bytes at (0x00004898-0x00004CE0)
  1 Backgrounds in this chunk
Chunk[9]: "PATH" 8b bytes at (0x00004CE8-0x00004CF0)
  0 Paths in this chunk
Chunk[10]: "SCPT" 8b bytes at (0x00004CF8-0x00004D00)
  0 Scripts in this chunk
Chunk[11]: "GLOB" 8b bytes at (0x00004D08-0x00004D10)
Chunk[12]: "SHDR" 8b bytes at (0x00004D18-0x00004D20)
Chunk[13]: "FONT" 2kB 440b bytes at (0x00004D28-0x000056E0)
  1 Fonts in this chunk
Chunk[14]: "TMLN" 8b bytes at (0x000056E8-0x000056F0)
Chunk[15]: "OBJT" 296b bytes at (0x000056F8-0x00005820)
  1 Objects in this chunk
Chunk[16]: "ROOM" 13kB 984b bytes at (0x00005828-0x00009000)
  2 Rooms in this chunk
Chunk[17]: "DAFL" 8b bytes at (0x00009008-0x00009010)
Chunk[18]: "EMBI" 8b bytes at (0x00009018-0x00009020)
Chunk[19]: "TPAG" 968b bytes at (0x00009028-0x000093F0)
  37 Texture Parts in this chunk
Chunk[20]: "TGIN" 136b bytes at (0x000093F8-0x00009480)
Chunk[21]: "CODE" 120b bytes at (0x00009488-0x00009500)
  3 Codes in this chunk
  Code[0] (0x000094BC) "gml_Object_TestObject_PreCreate_0" [ 12, 1, -48, 0]:
  Code[1] (0x000094D0) "gml_Room_TestRoom1_Create" [ 12, 1, -56, 0]:
  Code[2] (0x000094E4) "gml_RoomCC_TestRoom1_0_Create" [ 12, 1, -64, 0]:
Chunk[22]: "VARI" 152b bytes at (0x00009508-0x000095A0)
Chunk[23]: "FUNC" 72b bytes at (0x000095A8-0x000095F0)
Chunk[24]: "STRG" 776b bytes at (0x000095F8-0x00009900)
  32 Strings in this chunk
Chunk[25]: "TXTR" 48kB 536b bytes at (0x00009908-0x00015B20)
  2 Textures in this chunk
Chunk[26]: "AUDO" 4b bytes at (0x00015B28-0x00015B2C)
  0 Audios in this chunk
Memory usage: 68.86% (88kB 150b / 128kB 0b)
Pack Deserialization Succeeded!

36 bytes
00 00 02 D9 03 00 00 00 00 00 05 9E 0A 00 0F 84 FF FF 25 45 04 00 00 A0 0A 00 0F 84 FF FF 25 45 05 00 00 A0

Releasing old pack data
Importing data from "C:\Users\robbitay\Documents\MyStuff\Programming\GameMaker\TestProject1\data_files\data2.win"...
Chunk[0]: "FORM" 86kB 804b bytes at (0x00000008-0x00015B2C)
Chunk[1]: "GEN8" 208b bytes at (0x00000010-0x000000E0)
Generation Info (208b at 0x00000010) expecting 128b:
Generation Info (68b at 0x0000009C) expecting 68b:
Chunk[2]: "OPTN" 88b bytes at (0x000000E8-0x00000140)
Chunk[3]: "LANG" 24b bytes at (0x00000148-0x00000160)
Chunk[4]: "EXTN" 8b bytes at (0x00000168-0x00000170)
Chunk[5]: "SOND" 8b bytes at (0x00000178-0x00000180)
  0 Sounds in this chunk
Chunk[6]: "AGRP" 24b bytes at (0x00000188-0x000001A0)
Chunk[7]: "SPRT" 17kB 744b bytes at (0x000001A8-0x00004890)
  1 Sprites in this chunk
Chunk[8]: "BGND" 1kB 72b bytes at (0x00004898-0x00004CE0)
  1 Backgrounds in this chunk
Chunk[9]: "PATH" 8b bytes at (0x00004CE8-0x00004CF0)
  0 Paths in this chunk
Chunk[10]: "SCPT" 8b bytes at (0x00004CF8-0x00004D00)
  0 Scripts in this chunk
Chunk[11]: "GLOB" 8b bytes at (0x00004D08-0x00004D10)
Chunk[12]: "SHDR" 8b bytes at (0x00004D18-0x00004D20)
Chunk[13]: "FONT" 2kB 440b bytes at (0x00004D28-0x000056E0)
  1 Fonts in this chunk
Chunk[14]: "TMLN" 8b bytes at (0x000056E8-0x000056F0)
Chunk[15]: "OBJT" 296b bytes at (0x000056F8-0x00005820)
  1 Objects in this chunk
Chunk[16]: "ROOM" 13kB 984b bytes at (0x00005828-0x00009000)
  2 Rooms in this chunk
Chunk[17]: "DAFL" 8b bytes at (0x00009008-0x00009010)
Chunk[18]: "EMBI" 8b bytes at (0x00009018-0x00009020)
Chunk[19]: "TPAG" 968b bytes at (0x00009028-0x000093F0)
  37 Texture Parts in this chunk
Chunk[20]: "TGIN" 136b bytes at (0x000093F8-0x00009480)
Chunk[21]: "CODE" 184b bytes at (0x00009488-0x00009540)
  3 Codes in this chunk
  Code[0] (0x00009500) "gml_Object_TestObject_PreCreate_0" [ 12, 1, -116, 0]:
  Code[1] (0x00009514) "gml_Room_TestRoom1_Create" [ 12, 1, -124, 0]:
  Code[2] (0x00009528) "gml_RoomCC_TestRoom1_0_Create" [ 80, 1, -132, 0]:
Chunk[22]: "VARI" 152b bytes at (0x00009548-0x000095E0)
Chunk[23]: "FUNC" 72b bytes at (0x000095E8-0x00009630)
Chunk[24]: "STRG" 712b bytes at (0x00009638-0x00009900)
  32 Strings in this chunk
Chunk[25]: "TXTR" 48kB 536b bytes at (0x00009908-0x00015B20)
  2 Textures in this chunk
Chunk[26]: "AUDO" 4b bytes at (0x00015B28-0x00015B2C)
  0 Audios in this chunk
Memory usage: 82.79% (211kB 956b / 256kB 0b)
Pack Deserialization Succeeded!

104 bytes
00 00 02 D9 03 00 00 00 00 00 05 9E 0A 00 0F 84 FF FF 25 45 04 00 00 A0 0A 00 0F 84 FF FF 25 45 [08 00 00 A0 FF FF 05 C0 10 00 00 A0 01 00 0F C0 00 00 52 0C FF FF 55 45 08 00 00 A0 FF FF 05 C0 14 00 00 A0 00 00 0F 84 00 06 52 15 07 00 00 B8 FF FF 05 C0 10 00 00 A0 02 00 0F 84 00 00 52 08 FF FF 55 45] 05 00 00 A0