Releasing old pack data
Importing data from "C:\Users\robbitay\Documents\MyStuff\Games\Akurra Demo v3.0f\backup.win"...
Chunk[0]: "FORM" 142MB 493kB 20b bytes at (0x00000008-0x08E7B41C)
Chunk[1]: "GEN8" 704b bytes at (0x00000010-0x000002D0)
Generation Info (704b at 0x00000010) expecting 128b:
Generation Info (72b at 0x00000288) expecting 68b:
Chunk[2]: "OPTN" 88b bytes at (0x000002D8-0x00000330)
Chunk[3]: "LANG" 24b bytes at (0x00000338-0x00000350)
Chunk[4]: "EXTN" 8b bytes at (0x00000358-0x00000360)
Chunk[5]: "SOND" 5kB 488b bytes at (0x00000368-0x00001950)
  140 Sounds in this chunk
Chunk[6]: "AGRP" 24b bytes at (0x00001958-0x00001970)
Chunk[7]: "SPRT" 783kB 88b bytes at (0x00001978-0x000C55D0)
  697 Sprites in this chunk
Chunk[8]: "BGND" 12kB 632b bytes at (0x000C55D8-0x000C8850)
  9 Backgrounds in this chunk
Chunk[9]: "PATH" 264b bytes at (0x000C8858-0x000C8960)
  1 Paths in this chunk
Chunk[10]: "SCPT" 3kB 56b bytes at (0x000C8968-0x000C95A0)
  260 Scripts in this chunk
Chunk[11]: "GLOB" 536b bytes at (0x000C95A8-0x000C97C0)
Chunk[12]: "SHDR" 8b bytes at (0x000C97C8-0x000C97D0)
Chunk[13]: "FONT" 12kB 72b bytes at (0x000C97D8-0x000CC820)
  6 Fonts in this chunk
Chunk[14]: "TMLN" 8b bytes at (0x000CC828-0x000CC830)
Chunk[15]: "OBJT" 177kB 1016b bytes at (0x000CC838-0x000F9030)
  420 Objects in this chunk
Chunk[16]: "ACRV" 8b bytes at (0x000F9038-0x000F9040)
Chunk[17]: "SEQN" 8b bytes at (0x000F9048-0x000F9050)
Chunk[18]: "TAGS" 24b bytes at (0x000F9058-0x000F9070)
Chunk[19]: "ROOM" 1MB 542kB 952b bytes at (0x000F9078-0x00280C30)
  125 Rooms in this chunk
Chunk[20]: "DAFL" 8b bytes at (0x00280C38-0x00280C40)
Chunk[21]: "EMBI" 8b bytes at (0x00280C48-0x00280C50)
Chunk[22]: "TPAG" 79kB 184b bytes at (0x00280C58-0x00294910)
  3118 Texture Parts in this chunk
Chunk[23]: "TGIN" 2kB 872b bytes at (0x00294918-0x00295480)
Chunk[24]: "CODE" 325kB 552b bytes at (0x00295488-0x002E6AB0)
  1901 Codes in this chunk
Chunk[25]: "VARI" 76kB 872b bytes at (0x002E6AB8-0x002F9E20)
Warning: The variables section contains a few unknown bytes at the end: 4 bytes
  3934 Variables in this chunk (2022 read, 2022 something1, 42 something2)
Chunk[26]: "FUNC" 39kB 824b bytes at (0x002F9E28-0x00303D60)
  319 Functions in this chunk
    Func[0] (0x002F9E2C): "randomize"
      unknown0: 1
      firstCodeReference: 0x00297248
    Func[1] (0x002F9E38): "gml_Script_debug_variable_setup"
      unknown0: 2
      firstCodeReference: 0x00297254
    Func[2] (0x002F9E44): "gml_Script_debug_settings"
      unknown0: 2
      firstCodeReference: 0x00297260
    Func[3] (0x002F9E50): "gml_Script_global_constants_setup"
      unknown0: 2
      firstCodeReference: 0x0029726C
    Func[4] (0x002F9E5C): "gml_Script_map_setup"
      unknown0: 2
      firstCodeReference: 0x00297278
    Func[5] (0x002F9E68): "gml_Script_reusable_global_variable_init"
      unknown0: 3
      firstCodeReference: 0x00297284
    Func[6] (0x002F9E74): "gml_Script_undo_variable_setup"
      unknown0: 3
      firstCodeReference: 0x00297290
    Func[7] (0x002F9E80): "ds_list_create"
      unknown0: 6
      firstCodeReference: 0x002976EC
    Func[8] (0x002F9E8C): "ds_list_add"
      unknown0: 18
      firstCodeReference: 0x0029772C
    Func[9] (0x002F9E98): "ds_list_shuffle"
      unknown0: 5
      firstCodeReference: 0x00297740
    Func[10] (0x002F9EA4): "ds_list_find_value"
      unknown0: 13
      firstCodeReference: 0x00297788
    Func[11] (0x002F9EB0): "ds_list_destroy"
      unknown0: 6
      firstCodeReference: 0x002977CC
    Func[12] (0x002F9EBC): "ds_map_size"
      unknown0: 2
      firstCodeReference: 0x00297DAC
    Func[13] (0x002F9EC8): "ds_list_find_index"
      unknown0: 10
      firstCodeReference: 0x00297E4C
    Func[14] (0x002F9ED4): "gml_Script_room_variable_setup"
      unknown0: 3
      firstCodeReference: 0x00297F10
    Func[15] (0x002F9EE0): "ds_stack_create"
      unknown0: 6
      firstCodeReference: 0x00298378
    Func[16] (0x002F9EEC): "ds_map_create"
      unknown0: 4
      firstCodeReference: 0x00298394
    Func[17] (0x002F9EF8): "ds_map_add"
      unknown0: 64
      firstCodeReference: 0x002983C4
    Func[18] (0x002F9F04): "array_length_1d"
      unknown0: 24
      firstCodeReference: 0x00298828
    Func[19] (0x002F9F10): "array_copy"
      unknown0: 1
      firstCodeReference: 0x00298874
    Func[20] (0x002F9F1C): "gml_Script_save_file_initialization"
      unknown0: 3
      firstCodeReference: 0x00298BD0
    Func[21] (0x002F9F28): "gml_Script_debug_item_count_tool_setup"
      unknown0: 2
      firstCodeReference: 0x00298BF8
    Func[22] (0x002F9F34): "gml_Script_global_variable_setup"
      unknown0: 2
      firstCodeReference: 0x00298C0C
    Func[23] (0x002F9F40): "method"
      unknown0: 130
      firstCodeReference: 0x00298C20
    Func[24] (0x002F9F4C): "string_length"
      unknown0: 9
      firstCodeReference: 0x00298CA0
    Func[25] (0x002F9F58): "string_char_at"
      unknown0: 10
      firstCodeReference: 0x00298CC0
    Func[26] (0x002F9F64): "string_delete"
      unknown0: 10
      firstCodeReference: 0x00298CF8
    Func[27] (0x002F9F70): "string_insert"
      unknown0: 2
      firstCodeReference: 0x00298DA8
    Func[28] (0x002F9F7C): "audio_listener_orientation"
      unknown0: 1
      firstCodeReference: 0x00299B50
    Func[29] (0x002F9F88): "audio_falloff_set_model"
      unknown0: 1
      firstCodeReference: 0x00299B64
    Func[30] (0x002F9F94): "gml_Script_ui_positions_setup"
      unknown0: 2
      firstCodeReference: 0x0029A6AC
    Func[31] (0x002F9FA0): "make_color_rgb"
      unknown0: 6
      firstCodeReference: 0x0029A6DC
    Func[32] (0x002F9FAC): "gml_Script_initialize_map"
      unknown0: 3
      firstCodeReference: 0x0029AF54
    Func[33] (0x002F9FB8): "room_exists"
      unknown0: 6
      firstCodeReference: 0x0029AFF8
    Func[34] (0x002F9FC4): "room_get_name"
      unknown0: 7
      firstCodeReference: 0x0029B010
    Func[35] (0x002F9FD0): "ds_stack_push"
      unknown0: 6
      firstCodeReference: 0x0029B020
    Func[36] (0x002F9FDC): "ds_stack_empty"
      unknown0: 4
      firstCodeReference: 0x0029B050
    Func[37] (0x002F9FE8): "ds_stack_pop"
      unknown0: 8
      firstCodeReference: 0x0029B06C
    Func[38] (0x002F9FF4): "gml_Script_room_get_data"
      unknown0: 2
      firstCodeReference: 0x0029B084
    Func[39] (0x002FA000): "ds_map_find_value"
      unknown0: 86
      firstCodeReference: 0x0029B10C
    Func[40] (0x002FA00C): "is_undefined"
      unknown0: 33
      firstCodeReference: 0x0029B124
    Func[41] (0x002FA018): "asset_get_index"
      unknown0: 2
      firstCodeReference: 0x0029B1A4
    Func[42] (0x002FA024): "ds_map_replace"
      unknown0: 104
      firstCodeReference: 0x0029B1EC
    Func[43] (0x002FA030): "gml_Script_instance_destroy_safe"
      unknown0: 50
      firstCodeReference: 0x0029B200
    Func[44] (0x002FA03C): "ds_stack_destroy"
      unknown0: 6
      firstCodeReference: 0x0029B21C
    Func[45] (0x002FA048): "ds_list_size"
      unknown0: 9
      firstCodeReference: 0x0029B244
    Func[46] (0x002FA054): "gml_Script_map_title_item_setup"
      unknown0: 8
      firstCodeReference: 0x0029B2EC
    Func[47] (0x002FA060): "ds_list_clear"
      unknown0: 1
      firstCodeReference: 0x0029B820
    Func[48] (0x002FA06C): "mp_grid_destroy"
      unknown0: 2
      firstCodeReference: 0x0029B848
    Func[49] (0x002FA078): "sprite_get_number"
      unknown0: 3
      firstCodeReference: 0x0029B8F4
    Func[50] (0x002FA084): "irandom"
      unknown0: 29
      firstCodeReference: 0x0029B940
    Func[51] (0x002FA090): "gml_Script_island_symbols_setup"
      unknown0: 2
      firstCodeReference: 0x0029B984
    Func[52] (0x002FA09C): "ds_exists"
      unknown0: 6
      firstCodeReference: 0x0029B9C8
    Func[53] (0x002FA0A8): "ds_map_empty"
      unknown0: 1
      firstCodeReference: 0x0029B9E0
    Func[54] (0x002FA0B4): "string"
      unknown0: 142
      firstCodeReference: 0x0029BACC
    Func[55] (0x002FA0C0): "gml_Script_update_soko_map"
      unknown0: 4
      firstCodeReference: 0x0029BC0C
    Func[56] (0x002FA0CC): "gml_Script_island_soko_setup"
      unknown0: 2
      firstCodeReference: 0x0029BC50
    Func[57] (0x002FA0D8): "chr"
      unknown0: 3
      firstCodeReference: 0x0029BDE8
    Func[58] (0x002FA0E4): "ord"
      unknown0: 3
      firstCodeReference: 0x0029BF60
    Func[59] (0x002FA0F0): "gml_Script_music_sequence_setup"
      unknown0: 2
      firstCodeReference: 0x0029C060
    Func[60] (0x002FA0FC): "audio_listener_position"
      unknown0: 2
      firstCodeReference: 0x0029C0AC
    Func[61] (0x002FA108): "ds_map_destroy"
      unknown0: 10
      firstCodeReference: 0x0029C114
    Func[62] (0x002FA114): "gml_Script_reset_game"
      unknown0: 2
      firstCodeReference: 0x0029C238
    Func[63] (0x002FA120): "gml_Script_clear_undo_decals"
      unknown0: 3
      firstCodeReference: 0x0029C53C
    Func[64] (0x002FA12C): "gml_Script_create_pattern"
      unknown0: 5
      firstCodeReference: 0x0029C5B4
    Func[65] (0x002FA138): "gml_Script_pattern_puzzle_setup"
      unknown0: 2
      firstCodeReference: 0x0029C690
    Func[66] (0x002FA144): "ds_list_delete"
      unknown0: 2
      firstCodeReference: 0x0029C81C
    Func[67] (0x002FA150): "gml_Script_pattern_array_add"
      unknown0: 6
      firstCodeReference: 0x0029CBC8
    Func[68] (0x002FA15C): "gml_Script_pattern_set_object_position"
      unknown0: 2
      firstCodeReference: 0x0029D1DC
    Func[69] (0x002FA168): "gml_Script_open_ds_map"
      unknown0: 11
      firstCodeReference: 0x0029D570
    Func[70] (0x002FA174): "gml_Script_save_and_close_ds_map"
      unknown0: 5
      firstCodeReference: 0x0029DEB4
    Func[71] (0x002FA180): "gml_Script_load_save_file_ui_elements"
      unknown0: 4
      firstCodeReference: 0x0029E318
    Func[72] (0x002FA18C): "gml_Script_save_pattern_puzzles"
      unknown0: 2
      firstCodeReference: 0x0029EBD0
    Func[73] (0x002FA198): "ds_map_secure_save"
      unknown0: 6
      firstCodeReference: 0x0029ECA0
    Func[74] (0x002FA1A4): "gml_Script_save_game"
      unknown0: 5
      firstCodeReference: 0x0029ED64
    Func[75] (0x002FA1B0): "gml_Script_load_game"
      unknown0: 3
      firstCodeReference: 0x0029FAD4
    Func[76] (0x002FA1BC): "array_length_2d"
      unknown0: 7
      firstCodeReference: 0x0029FC30
    Func[77] (0x002FA1C8): "array_height_2d"
      unknown0: 7
      firstCodeReference: 0x0029FC5C
    Func[78] (0x002FA1D4): "ds_map_secure_load"
      unknown0: 2
      firstCodeReference: 0x0029FDC8
    Func[79] (0x002FA1E0): "gml_Script_console_message"
      unknown0: 14
      firstCodeReference: 0x0029FE3C
    Func[80] (0x002FA1EC): "ds_map_find_first"
      unknown0: 1
      firstCodeReference: 0x0029FED4
    Func[81] (0x002FA1F8): "gml_Script_create_content_map_key_prefix"
      unknown0: 8
      firstCodeReference: 0x002A0008
    Func[82] (0x002FA204): "window_get_width"
      unknown0: 2
      firstCodeReference: 0x002A004C
    Func[83] (0x002FA210): "window_get_height"
      unknown0: 2
      firstCodeReference: 0x002A005C
    Func[84] (0x002FA21C): "ini_open"
      unknown0: 2
      firstCodeReference: 0x002A0074
    Func[85] (0x002FA228): "ini_write_real"
      unknown0: 3
      firstCodeReference: 0x002A00A0
    Func[86] (0x002FA234): "ini_close"
      unknown0: 2
      firstCodeReference: 0x002A0104
    Func[87] (0x002FA240): "gml_Script_save_system_settings"
      unknown0: 4
      firstCodeReference: 0x002A0118
    Func[88] (0x002FA24C): "ini_read_real"
      unknown0: 3
      firstCodeReference: 0x002A0180
    Func[89] (0x002FA258): "gml_Script_load_system_settings"
      unknown0: 3
      firstCodeReference: 0x002A0204
    Func[90] (0x002FA264): "string_lower"
      unknown0: 1
      firstCodeReference: 0x002A0258
    Func[91] (0x002FA270): "show_message"
      unknown0: 2
      firstCodeReference: 0x002A02A8
    Func[92] (0x002FA27C): "gml_Script_name_lower_case"
      unknown0: 2
      firstCodeReference: 0x002A02BC
    Func[93] (0x002FA288): "gml_Script_setup_input_variables"
      unknown0: 21
      firstCodeReference: 0x002A0520
    Func[94] (0x002FA294): "gamepad_get_device_count"
      unknown0: 1
      firstCodeReference: 0x002A0568
    Func[95] (0x002FA2A0): "gamepad_is_connected"
      unknown0: 1
      firstCodeReference: 0x002A0580
    Func[96] (0x002FA2AC): "gamepad_get_description"
      unknown0: 1
      firstCodeReference: 0x002A05CC
    Func[97] (0x002FA2B8): "gml_Script_set_gamepad_scheme"
      unknown0: 2
      firstCodeReference: 0x002A05DC
    Func[98] (0x002FA2C4): "gml_Script_listen_for_gamepads"
      unknown0: 5
      firstCodeReference: 0x002A060C
    Func[99] (0x002FA2D0): "gamepad_button_check_pressed"
      unknown0: 7
      firstCodeReference: 0x002A0DD4
    Func[100] (0x002FA2DC): "gml_Script_set_custom_gamepad_button"
      unknown0: 2
      firstCodeReference: 0x002A0E44
    Func[101] (0x002FA2E8): "gml_Script_input_delay"
      unknown0: 7
      firstCodeReference: 0x002A0F18
    Func[102] (0x002FA2F4): "gamepad_set_vibration"
      unknown0: 2
      firstCodeReference: 0x002A0FFC
    Func[103] (0x002FA300): "gml_Script_gamepad_vibrate"
      unknown0: 18
      firstCodeReference: 0x002A1038
    Func[104] (0x002FA30C): "gamepad_axis_value"
      unknown0: 5
      firstCodeReference: 0x002A10F4
    Func[105] (0x002FA318): "gamepad_button_check"
      unknown0: 5
      firstCodeReference: 0x002A12C4
    Func[106] (0x002FA324): "gamepad_button_check_released"
      unknown0: 1
      firstCodeReference: 0x002A1430
    Func[107] (0x002FA330): "keyboard_check"
      unknown0: 10
      firstCodeReference: 0x002A14E4
    Func[108] (0x002FA33C): "keyboard_check_pressed"
      unknown0: 7
      firstCodeReference: 0x002A1544
    Func[109] (0x002FA348): "keyboard_check_released"
      unknown0: 20
      firstCodeReference: 0x002A15A4
    Func[110] (0x002FA354): "gml_Script_gamepad_input"
      unknown0: 12
      firstCodeReference: 0x002A1A28
    Func[111] (0x002FA360): "gml_Script_set_player_direction"
      unknown0: 1
      firstCodeReference: 0x002A1D14
    Func[112] (0x002FA36C): "instance_find"
      unknown0: 7
      firstCodeReference: 0x002A1DB4
    Func[113] (0x002FA378): "instance_exists"
      unknown0: 22
      firstCodeReference: 0x002A1E50
    Func[114] (0x002FA384): "instance_number"
      unknown0: 12
      firstCodeReference: 0x002A2250
    Func[115] (0x002FA390): "gml_Script_minimap_explore_room"
      unknown0: 4
      firstCodeReference: 0x002A2508
    Func[116] (0x002FA39C): "gml_Script_minimap_retrieve_room_contents"
      unknown0: 3
      firstCodeReference: 0x002A281C
    Func[117] (0x002FA3A8): "instance_create_layer"
      unknown0: 117
      firstCodeReference: 0x002A28B4
    Func[118] (0x002FA3B4): "gml_Script_open_minimap"
      unknown0: 3
      firstCodeReference: 0x002A28D4
    Func[119] (0x002FA3C0): "frac"
      unknown0: 1
      firstCodeReference: 0x002A293C
    Func[120] (0x002FA3CC): "gml_Script_get_completion_rate"
      unknown0: 3
      firstCodeReference: 0x002A2964
    Func[121] (0x002FA3D8): "instance_destroy"
      unknown0: 137
      firstCodeReference: 0x002A2A48
    Func[122] (0x002FA3E4): "event_user"
      unknown0: 313
      firstCodeReference: 0x002A2A74
    Func[123] (0x002FA3F0): "gml_Script_function_call"
      unknown0: 2
      firstCodeReference: 0x002A2AC4
    Func[124] (0x002FA3FC): "gml_Script_is_number"
      unknown0: 1
      firstCodeReference: 0x002A2B90
    Func[125] (0x002FA408): "string_replace_all"
      unknown0: 3
      firstCodeReference: 0x002A2C4C
    Func[126] (0x002FA414): "string_copy"
      unknown0: 4
      firstCodeReference: 0x002A2CBC
    Func[127] (0x002FA420): "string_digits"
      unknown0: 1
      firstCodeReference: 0x002A2DA0
    Func[128] (0x002FA42C): "real"
      unknown0: 3
      firstCodeReference: 0x002A2DD0
    Func[129] (0x002FA438): "gml_Script_island_item_count_update"
      unknown0: 3
      firstCodeReference: 0x002A2F44
    Func[130] (0x002FA444): "gml_Script_stop_looping_sound"
      unknown0: 5
      firstCodeReference: 0x002A2FE8
    Func[131] (0x002FA450): "audio_stop_sound"
      unknown0: 17
      firstCodeReference: 0x002A3030
    Func[132] (0x002FA45C): "room_restart"
      unknown0: 4
      firstCodeReference: 0x002A3210
    Func[133] (0x002FA468): "gml_Script_cinematic_mode_off"
      unknown0: 37
      firstCodeReference: 0x002A3458
    Func[134] (0x002FA474): "gml_Script_get_screen_edge_spawn"
      unknown0: 9
      firstCodeReference: 0x002A3564
    Func[135] (0x002FA480): "gml_Script_cinematic_mode_on"
      unknown0: 31
      firstCodeReference: 0x002A35D8
    Func[136] (0x002FA48C): "gml_Script_get_undo_stack_room"
      unknown0: 6
      firstCodeReference: 0x002A3794
    Func[137] (0x002FA498): "gml_Script_clear_undo_states"
      unknown0: 4
      firstCodeReference: 0x002A37F0
    Func[138] (0x002FA4A4): "room_goto"
      unknown0: 6
      firstCodeReference: 0x002A3804
    Func[139] (0x002FA4B0): "gml_Script_room_change"
      unknown0: 15
      firstCodeReference: 0x002A3C70
    Func[140] (0x002FA4BC): "lengthdir_x"
      unknown0: 35
      firstCodeReference: 0x002A3DC0
    Func[141] (0x002FA4C8): "lengthdir_y"
      unknown0: 34
      firstCodeReference: 0x002A3DEC
    Func[142] (0x002FA4D4): "gml_Script_instance_create_projectile"
      unknown0: 4
      firstCodeReference: 0x002A3F2C
    Func[143] (0x002FA4E0): "gml_Script_root_spawn"
      unknown0: 3
      firstCodeReference: 0x002A3FFC
    Func[144] (0x002FA4EC): "instance_place"
      unknown0: 12
      firstCodeReference: 0x002A41F0
    Func[145] (0x002FA4F8): "gml_Script_get_instance"
      unknown0: 77
      firstCodeReference: 0x002A4214
    Func[146] (0x002FA504): "floor"
      unknown0: 1
      firstCodeReference: 0x002A426C
    Func[147] (0x002FA510): "gml_Script_snap_to_grid"
      unknown0: 19
      firstCodeReference: 0x002A428C
    Func[148] (0x002FA51C): "gml_Script_instance_create_effect"
      unknown0: 81
      firstCodeReference: 0x002A4440
    Func[149] (0x002FA528): "gml_Script_break_blocks"
      unknown0: 5
      firstCodeReference: 0x002A4454
    Func[150] (0x002FA534): "gml_Script_update_move_speed"
      unknown0: 11
      firstCodeReference: 0x002A44BC
    Func[151] (0x002FA540): "gml_Script_secret_object_top_ui"
      unknown0: 6
      firstCodeReference: 0x002A4534
    Func[152] (0x002FA54C): "place_meeting"
      unknown0: 11
      firstCodeReference: 0x002A46A0
    Func[153] (0x002FA558): "gml_Script_forced_movement_old"
      unknown0: 1
      firstCodeReference: 0x002A4794
    Func[154] (0x002FA564): "gml_Script_image_speed_time"
      unknown0: 2
      firstCodeReference: 0x002A4838
    Func[155] (0x002FA570): "gml_Script_player_block_push_code"
      unknown0: 1
      firstCodeReference: 0x002A4874
    Func[156] (0x002FA57C): "gml_Script_increment_item_totals"
      unknown0: 3
      firstCodeReference: 0x002A4910
    Func[157] (0x002FA588): "gml_Script_get_island_item_collected_percentage"
      unknown0: 1
      firstCodeReference: 0x002A494C
    Func[158] (0x002FA594): "gml_Script_instance_spawn_star"
      unknown0: 2
      firstCodeReference: 0x002A4D84
    Func[159] (0x002FA5A0): "gml_Script_undo_state_save"
      unknown0: 10
      firstCodeReference: 0x002A4F28
    Func[160] (0x002FA5AC): "gml_Script_player_check_walkable_instance_undo_save"
      unknown0: 3
      firstCodeReference: 0x002A4F3C
    Func[161] (0x002FA5B8): "gml_Script_undo_remove_last"
      unknown0: 2
      firstCodeReference: 0x002A5224
    Func[162] (0x002FA5C4): "ds_stack_write"
      unknown0: 1
      firstCodeReference: 0x002A52D4
    Func[163] (0x002FA5D0): "gml_Script_undo_stack_push"
      unknown0: 12
      firstCodeReference: 0x002A5394
    Func[164] (0x002FA5DC): "sprite_get_width"
      unknown0: 21
      firstCodeReference: 0x002A5444
    Func[165] (0x002FA5E8): "gml_Script_instance_create_decal"
      unknown0: 84
      firstCodeReference: 0x002A548C
    Func[166] (0x002FA5F4): "gml_Script_play_sound"
      unknown0: 127
      firstCodeReference: 0x002A59CC
    Func[167] (0x002FA600): "gml_Script_undo_state_load"
      unknown0: 3
      firstCodeReference: 0x002A5AC4
    Func[168] (0x002FA60C): "gml_Script_undo_function"
      unknown0: 3
      firstCodeReference: 0x002A5AD8
    Func[169] (0x002FA618): "json_decode"
      unknown0: 1
      firstCodeReference: 0x002A5CB8
    Func[170] (0x002FA624): "gml_Script_reset_player_movement"
      unknown0: 2
      firstCodeReference: 0x002A5EF0
    Func[171] (0x002FA630): "gml_Script_terrain_effects"
      unknown0: 6
      firstCodeReference: 0x002A5F60
    Func[172] (0x002FA63C): "object_is_ancestor"
      unknown0: 18
      firstCodeReference: 0x002A615C
    Func[173] (0x002FA648): "gml_Script_pathing_maps_create"
      unknown0: 3
      firstCodeReference: 0x002A61C8
    Func[174] (0x002FA654): "gml_Script_undo_next_state"
      unknown0: 3
      firstCodeReference: 0x002A61D4
    Func[175] (0x002FA660): "gml_Script_undo_instance_status_map"
      unknown0: 2
      firstCodeReference: 0x002A63AC
    Func[176] (0x002FA66C): "ds_stack_read"
      unknown0: 1
      firstCodeReference: 0x002A6478
    Func[177] (0x002FA678): "json_encode"
      unknown0: 1
      firstCodeReference: 0x002A671C
    Func[178] (0x002FA684): "ds_stack_top"
      unknown0: 1
      firstCodeReference: 0x002A6948
    Func[179] (0x002FA690): "gml_Script_start_cutscene"
      unknown0: 5
      firstCodeReference: 0x002A6A9C
    Func[180] (0x002FA69C): "gml_Script_screen_shake"
      unknown0: 12
      firstCodeReference: 0x002A6B1C
    Func[181] (0x002FA6A8): "event_perform"
      unknown0: 32
      firstCodeReference: 0x002A6B80
    Func[182] (0x002FA6B4): "gml_Script_end_cutscene"
      unknown0: 2
      firstCodeReference: 0x002A6BA8
    Func[183] (0x002FA6C0): "gml_Script_stone_form_step"
      unknown0: 2
      firstCodeReference: 0x002A6C9C
    Func[184] (0x002FA6CC): "gml_Script_stone_form_block_upgrade"
      unknown0: 2
      firstCodeReference: 0x002A6E6C
    Func[185] (0x002FA6D8): "gml_Script_forced_walking"
      unknown0: 14
      firstCodeReference: 0x002A6F50
    Func[186] (0x002FA6E4): "gml_Script_play_music"
      unknown0: 4
      firstCodeReference: 0x002A6F8C
    Func[187] (0x002FA6F0): "gml_Script_sokoblock_cutscene"
      unknown0: 2
      firstCodeReference: 0x002A6FD0
    Func[188] (0x002FA6FC): "mp_grid_create"
      unknown0: 2
      firstCodeReference: 0x002A7080
    Func[189] (0x002FA708): "mp_grid_add_instances"
      unknown0: 4
      firstCodeReference: 0x002A70A8
    Func[190] (0x002FA714): "gml_Script_clear_grid_cell"
      unknown0: 9
      firstCodeReference: 0x002A7198
    Func[191] (0x002FA720): "mp_grid_add_cell"
      unknown0: 3
      firstCodeReference: 0x002A73A4
    Func[192] (0x002FA72C): "gml_Script_add_grid_cell"
      unknown0: 6
      firstCodeReference: 0x002A742C
    Func[193] (0x002FA738): "mp_grid_clear_cell"
      unknown0: 2
      firstCodeReference: 0x002A7620
    Func[194] (0x002FA744): "gml_Script_update_pathing_map_position"
      unknown0: 3
      firstCodeReference: 0x002A772C
    Func[195] (0x002FA750): "gml_Script_free_item_path_check"
      unknown0: 2
      firstCodeReference: 0x002A7788
    Func[196] (0x002FA75C): "gml_Script_soko_reset"
      unknown0: 3
      firstCodeReference: 0x002A78B0
    Func[197] (0x002FA768): "gml_Script_check_soko_solution"
      unknown0: 2
      firstCodeReference: 0x002A79C4
    Func[198] (0x002FA774): "sprite_get_height"
      unknown0: 13
      firstCodeReference: 0x002A84A0
    Func[199] (0x002FA780): "random"
      unknown0: 34
      firstCodeReference: 0x002A8588
    Func[200] (0x002FA78C): "gml_Script_instance_create_particle_effect"
      unknown0: 40
      firstCodeReference: 0x002A8644
    Func[201] (0x002FA798): "gml_Script_instance_create_particle_spawner"
      unknown0: 1
      firstCodeReference: 0x002A88CC
    Func[202] (0x002FA7A4): "gml_Script_instance_create_particle_beam_spawner"
      unknown0: 2
      firstCodeReference: 0x002A8C20
    Func[203] (0x002FA7B0): "gml_Script_instance_create_attached_effect"
      unknown0: 2
      firstCodeReference: 0x002A8CE4
    Func[204] (0x002FA7BC): "layer_get_id"
      unknown0: 15
      firstCodeReference: 0x002A8EBC
    Func[205] (0x002FA7C8): "gml_Script_instance_create_particle_spiral"
      unknown0: 2
      firstCodeReference: 0x002A8ED4
    Func[206] (0x002FA7D4): "audio_is_playing"
      unknown0: 14
      firstCodeReference: 0x002A8F58
    Func[207] (0x002FA7E0): "gml_Script_hit_effect"
      unknown0: 3
      firstCodeReference: 0x002A90A4
    Func[208] (0x002FA7EC): "gml_Script_stop_animation"
      unknown0: 31
      firstCodeReference: 0x002A913C
    Func[209] (0x002FA7F8): "camera_get_view_x"
      unknown0: 21
      firstCodeReference: 0x002A9178
    Func[210] (0x002FA804): "camera_get_view_y"
      unknown0: 24
      firstCodeReference: 0x002A9190
    Func[211] (0x002FA810): "draw_set_color"
      unknown0: 49
      firstCodeReference: 0x002A91BC
    Func[212] (0x002FA81C): "draw_set_alpha"
      unknown0: 14
      firstCodeReference: 0x002A91D0
    Func[213] (0x002FA828): "camera_get_view_height"
      unknown0: 17
      firstCodeReference: 0x002A9258
    Func[214] (0x002FA834): "camera_get_view_width"
      unknown0: 17
      firstCodeReference: 0x002A9274
    Func[215] (0x002FA840): "draw_rectangle"
      unknown0: 13
      firstCodeReference: 0x002A9290
    Func[216] (0x002FA84C): "gml_Script_screen_fade"
      unknown0: 3
      firstCodeReference: 0x002A93C0
    Func[217] (0x002FA858): "gml_Script_colorize_object"
      unknown0: 3
      firstCodeReference: 0x002A9434
    Func[218] (0x002FA864): "camera_set_view_pos"
      unknown0: 6
      firstCodeReference: 0x002A9528
    Func[219] (0x002FA870): "gml_Script_rock_smash"
      unknown0: 3
      firstCodeReference: 0x002A96EC
    Func[220] (0x002FA87C): "gml_Script_hammer_effect"
      unknown0: 3
      firstCodeReference: 0x002A9814
    Func[221] (0x002FA888): "layer_tilemap_get_id"
      unknown0: 3
      firstCodeReference: 0x002A9920
    Func[222] (0x002FA894): "tilemap_get_tileset"
      unknown0: 3
      firstCodeReference: 0x002A9938
    Func[223] (0x002FA8A0): "tilemap_set_at_pixel"
      unknown0: 1
      firstCodeReference: 0x002A9A88
    Func[224] (0x002FA8AC): "gml_Script_change_tile"
      unknown0: 3
      firstCodeReference: 0x002A9A9C
    Func[225] (0x002FA8B8): "gml_Script_sprite_get_center_offset"
      unknown0: 3
      firstCodeReference: 0x002A9BA8
    Func[226] (0x002FA8C4): "tilemap_get_at_pixel"
      unknown0: 1
      firstCodeReference: 0x002A9C54
    Func[227] (0x002FA8D0): "tile_get_index"
      unknown0: 1
      firstCodeReference: 0x002A9C6C
    Func[228] (0x002FA8DC): "draw_set_font"
      unknown0: 38
      firstCodeReference: 0x002AA0AC
    Func[229] (0x002FA8E8): "draw_set_halign"
      unknown0: 26
      firstCodeReference: 0x002AA0D8
    Func[230] (0x002FA8F4): "draw_set_valign"
      unknown0: 16
      firstCodeReference: 0x002AA0EC
    Func[231] (0x002FA900): "draw_sprite"
      unknown0: 20
      firstCodeReference: 0x002AA1E8
    Func[232] (0x002FA90C): "draw_text"
      unknown0: 80
      firstCodeReference: 0x002AA268
    Func[233] (0x002FA918): "gml_Script_draw_item_ui"
      unknown0: 3
      firstCodeReference: 0x002AA7F4
    Func[234] (0x002FA924): "string_width"
      unknown0: 6
      firstCodeReference: 0x002AA928
    Func[235] (0x002FA930): "draw_get_halign"
      unknown0: 1
      firstCodeReference: 0x002AA94C
    Func[236] (0x002FA93C): "variable_instance_exists"
      unknown0: 2
      firstCodeReference: 0x002AA9D0
    Func[237] (0x002FA948): "abs"
      unknown0: 15
      firstCodeReference: 0x002AAA84
    Func[238] (0x002FA954): "gml_Script_draw_moving_text"
      unknown0: 2
      firstCodeReference: 0x002AACD8
    Func[239] (0x002FA960): "gml_Script_instance_create_ui_decal"
      unknown0: 4
      firstCodeReference: 0x002AAEB4
    Func[240] (0x002FA96C): "gml_Script_get_room_coord_string"
      unknown0: 3
      firstCodeReference: 0x002AAF2C
    Func[241] (0x002FA978): "audio_play_sound"
      unknown0: 3
      firstCodeReference: 0x002AB238
    Func[242] (0x002FA984): "audio_sound_get_gain"
      unknown0: 3
      firstCodeReference: 0x002AB250
    Func[243] (0x002FA990): "audio_sound_gain"
      unknown0: 10
      firstCodeReference: 0x002AB290
    Func[244] (0x002FA99C): "audio_sound_length"
      unknown0: 1
      firstCodeReference: 0x002AB3CC
    Func[245] (0x002FA9A8): "audio_sound_set_track_position"
      unknown0: 7
      firstCodeReference: 0x002AB3E4
    Func[246] (0x002FA9B4): "gml_Script_play_ambiance"
      unknown0: 2
      firstCodeReference: 0x002AB434
    Func[247] (0x002FA9C0): "gml_Script_fail_sound"
      unknown0: 28
      firstCodeReference: 0x002AB500
    Func[248] (0x002FA9CC): "audio_sound_get_track_position"
      unknown0: 4
      firstCodeReference: 0x002AB5B4
    Func[249] (0x002FA9D8): "gml_Script_play_fanfare"
      unknown0: 15
      firstCodeReference: 0x002AB658
    Func[250] (0x002FA9E4): "gml_Script_ui_select_sound"
      unknown0: 20
      firstCodeReference: 0x002AB724
    Func[251] (0x002FA9F0): "gml_Script_get_sound_set_index"
      unknown0: 1
      firstCodeReference: 0x002AB79C
    Func[252] (0x002FA9FC): "gml_Script_show_developer_mode_message"
      unknown0: 5
      firstCodeReference: 0x002AB914
    Func[253] (0x002FAA08): "gml_Script_bool_to_string"
      unknown0: 4
      firstCodeReference: 0x002AB9F8
    Func[254] (0x002FAA14): "gml_Script_debug_test_effect"
      unknown0: 11
      firstCodeReference: 0x002ABA10
    Func[255] (0x002FAA20): "show_debug_overlay"
      unknown0: 1
      firstCodeReference: 0x002ABBA0
    Func[256] (0x002FAA2C): "gml_Script_debug_room_teleport"
      unknown0: 2
      firstCodeReference: 0x002ABF70
    Func[257] (0x002FAA38): "gml_Script_developer_mode"
      unknown0: 3
      firstCodeReference: 0x002AC610
    Func[258] (0x002FAA44): "gml_Script_test"
      unknown0: 2
      firstCodeReference: 0x002AC8B4
    Func[259] (0x002FAA50): "gml_Script_draw_debug_text"
      unknown0: 2
      firstCodeReference: 0x002AC9CC
    Func[260] (0x002FAA5C): "object_get_name"
      unknown0: 2
      firstCodeReference: 0x002ACAAC
    Func[261] (0x002FAA68): "show_debug_message"
      unknown0: 2
      firstCodeReference: 0x002ACAE0
    Func[262] (0x002FAA74): "game_restart"
      unknown0: 1
      firstCodeReference: 0x002AD638
    Func[263] (0x002FAA80): "gml_Script_item_count_tool"
      unknown0: 2
      firstCodeReference: 0x002AD7D4
    Func[264] (0x002FAA8C): "gml_Script_debug_print_map"
      unknown0: 1
      firstCodeReference: 0x002ADCEC
    Func[265] (0x002FAA98): "window_set_fullscreen"
      unknown0: 12
      firstCodeReference: 0x002AEF70
    Func[266] (0x002FAAA4): "window_set_size"
      unknown0: 5
      firstCodeReference: 0x002AF00C
    Func[267] (0x002FAAB0): "draw_clear"
      unknown0: 2
      firstCodeReference: 0x002AF048
    Func[268] (0x002FAABC): "window_get_fullscreen"
      unknown0: 2
      firstCodeReference: 0x002AF054
    Func[269] (0x002FAAC8): "window_has_focus"
      unknown0: 1
      firstCodeReference: 0x002AF118
    Func[270] (0x002FAAD4): "room_goto_next"
      unknown0: 2
      firstCodeReference: 0x002AF248
    Func[271] (0x002FAAE0): "event_inherited"
      unknown0: 611
      firstCodeReference: 0x002AF254
    Func[272] (0x002FAAEC): "display_get_height"
      unknown0: 1
      firstCodeReference: 0x002AF504
    Func[273] (0x002FAAF8): "display_get_width"
      unknown0: 1
      firstCodeReference: 0x002AF50C
    Func[274] (0x002FAB04): "view_get_camera"
      unknown0: 13
      firstCodeReference: 0x002AF9A4
    Func[275] (0x002FAB10): "layer_get_y"
      unknown0: 14
      firstCodeReference: 0x002AFE74
    Func[276] (0x002FAB1C): "layer_y"
      unknown0: 14
      firstCodeReference: 0x002AFEA4
    Func[277] (0x002FAB28): "room_goto_previous"
      unknown0: 1
      firstCodeReference: 0x002B0680
    Func[278] (0x002FAB34): "mp_grid_draw"
      unknown0: 1
      firstCodeReference: 0x002B1E68
    Func[279] (0x002FAB40): "audio_resume_sound"
      unknown0: 1
      firstCodeReference: 0x002B2B98
    Func[280] (0x002FAB4C): "alarm_get"
      unknown0: 1
      firstCodeReference: 0x002B2FDC
    Func[281] (0x002FAB58): "file_delete"
      unknown0: 6
      firstCodeReference: 0x002B4F54
    Func[282] (0x002FAB64): "game_end"
      unknown0: 1
      firstCodeReference: 0x002B53BC
    Func[283] (0x002FAB70): "round"
      unknown0: 3
      firstCodeReference: 0x002B6144
    Func[284] (0x002FAB7C): "ceil"
      unknown0: 1
      firstCodeReference: 0x002B66F0
    Func[285] (0x002FAB88): "audio_get_name"
      unknown0: 4
      firstCodeReference: 0x002B963C
    Func[286] (0x002FAB94): "draw_self"
      unknown0: 11
      firstCodeReference: 0x002BB978
    Func[287] (0x002FABA0): "instance_position"
      unknown0: 1
      firstCodeReference: 0x002BC154
    Func[288] (0x002FABAC): "point_direction"
      unknown0: 10
      firstCodeReference: 0x002BC31C
    Func[289] (0x002FABB8): "object_get_sprite"
      unknown0: 6
      firstCodeReference: 0x002BC8E4
    Func[290] (0x002FABC4): "@@Other@@"
      unknown0: 56
      firstCodeReference: 0x002BCE7C
    Func[291] (0x002FABD0): "camera_set_view_target"
      unknown0: 2
      firstCodeReference: 0x002BEE88
    Func[292] (0x002FABDC): "layer_vspeed"
      unknown0: 2
      firstCodeReference: 0x002BEF0C
    Func[293] (0x002FABE8): "camera_set_view_speed"
      unknown0: 1
      firstCodeReference: 0x002BEFB8
    Func[294] (0x002FABF4): "path_add"
      unknown0: 2
      firstCodeReference: 0x002BF0B0
    Func[295] (0x002FAC00): "mp_grid_path"
      unknown0: 2
      firstCodeReference: 0x002BF388
    Func[296] (0x002FAC0C): "draw_path"
      unknown0: 2
      firstCodeReference: 0x002BF858
    Func[297] (0x002FAC18): "audio_play_sound_at"
      unknown0: 2
      firstCodeReference: 0x002C0978
    Func[298] (0x002FAC24): "path_duplicate"
      unknown0: 1
      firstCodeReference: 0x002C0BEC
    Func[299] (0x002FAC30): "path_rotate"
      unknown0: 1
      firstCodeReference: 0x002C0C0C
    Func[300] (0x002FAC3C): "path_get_speed"
      unknown0: 1
      firstCodeReference: 0x002C0C70
    Func[301] (0x002FAC48): "path_insert_point"
      unknown0: 1
      firstCodeReference: 0x002C0C98
    Func[302] (0x002FAC54): "path_start"
      unknown0: 2
      firstCodeReference: 0x002C0CC4
    Func[303] (0x002FAC60): "draw_circle"
      unknown0: 1
      firstCodeReference: 0x002C0D54
    Func[304] (0x002FAC6C): "clamp"
      unknown0: 4
      firstCodeReference: 0x002C17D8
    Func[305] (0x002FAC78): "sign"
      unknown0: 3
      firstCodeReference: 0x002C1854
    Func[306] (0x002FAC84): "draw_sprite_part"
      unknown0: 1
      firstCodeReference: 0x002C286C
    Func[307] (0x002FAC90): "distance_to_object"
      unknown0: 3
      firstCodeReference: 0x002C3D2C
    Func[308] (0x002FAC9C): "angle_difference"
      unknown0: 3
      firstCodeReference: 0x002C5944
    Func[309] (0x002FACA8): "point_distance"
      unknown0: 3
      firstCodeReference: 0x002C6110
    Func[310] (0x002FACB4): "path_delete"
      unknown0: 1
      firstCodeReference: 0x002C80FC
    Func[311] (0x002FACC0): "audio_pause_sound"
      unknown0: 1
      firstCodeReference: 0x002C92F8
    Func[312] (0x002FACCC): "move_towards_point"
      unknown0: 3
      firstCodeReference: 0x002CA9F0
    Func[313] (0x002FACD8): "draw_tile"
      unknown0: 1
      firstCodeReference: 0x002CFDDC
    Func[314] (0x002FACE4): "path_end"
      unknown0: 1
      firstCodeReference: 0x002D6634
    Func[315] (0x002FACF0): "collision_line"
      unknown0: 1
      firstCodeReference: 0x002D6BB8
    Func[316] (0x002FACFC): "distance_to_point"
      unknown0: 2
      firstCodeReference: 0x002D9E70
    Func[317] (0x002FAD08): "draw_line"
      unknown0: 2
      firstCodeReference: 0x002DBDC4
    Func[318] (0x002FAD14): "instance_change"
      unknown0: 1
      firstCodeReference: 0x002DCA38
Chunk[27]: "STRG" 170kB 152b bytes at (0x00303D68-0x0032E600)
  5214 Strings in this chunk
Chunk[28]: "TXTR" 1MB 402kB 952b bytes at (0x0032E608-0x004931C0)
  3 Textures in this chunk
Chunk[29]: "AUDO" 137MB 928kB 596b bytes at (0x004931C8-0x08E7B41C)
  140 Audios in this chunk
Memory usage: 99.87% (144MB 277kB 735b / 144MB 475kB 739b)
Pack Deserialization Succeeded!
