
#Room "rm_loading" 1 object 2 layers
   0x000F9270:  C0 9D 31 00 (u32 nameOffset "rm_loading")
   0x000F9274:  00 00 00 00 (u32 captionOffset "")
   0x000F9278:  80 01 00 00 D8 00 00 00 (v2i size (384, 216))
   0x000F9280:  00 00 00 00 (u32 speed 0)
   0x000F9284:  00 00 00 00 (u32 isPersistent 0)
   0x000F9288:  00 00 00 00 (u32 color 0)
   0x000F928C:  00 00 00 00 (u32 isDrawBackgroundColor 0)
   0x000F9290:  FF FF FF FF (i32 unknown -1)
   0x000F9294:  00 00 03 00 (u32 flags 196608)
   0x000F9298:  D0 92 0F 00 (u32 backgroundOffset 0x000F92D0 -> 0 items)
   0x000F929C:  D4 92 0F 00 (u32 viewOffset 0x000F92D4 -> 8 items)
   0x000F92A0:  B8 94 0F 00 (u32 objectOffset 0x000F94B8 -> 1 item)
   0x000F92A4:  F0 94 0F 00 (u32 tileOffset 0x000F94F0 -> 0 items)
   0x000F92A8:  00 00 00 00 (u32 world 0)
   0x000F92AC:  00 00 00 00 00 00 00 00 00 00 00 00 00 00 00 00 (reci bounds (0, 0, 0, 0))
   0x000F92BC:  00 00 00 00 00 00 20 41 (v2 gravity (0, 10)
   0x000F92C4:  CD CC CC 3D (r32 metersPerPixel 0.1)
   0x000F92C8:  F4 94 0F 00 (u32 layerOffset 0x000F94F4 -> 2 items)
   0x000F92CC:  78 95 0F 00 (u32 unknownOffset2 0x000F9578 -> 0 items)
-> 0x000F92D0:  00 00 00 00 (0 backgrounds)
-> 0x000F92D4:  08 00 00 00 (8 views)
   0x000F92D8:  F8 92 0F 00 (viewOffset[0] 0x000F92F8)
   0x000F92DC:  30 93 0F 00 (viewOffset[1] 0x000F9330)
   0x000F92E0:  68 93 0F 00 (viewOffset[2] 0x000F9368)
   0x000F92E4:  A0 93 0F 00 (viewOffset[3] 0x000F93A0)
   0x000F92E8:  D8 93 0F 00 (viewOffset[4] 0x000F93D8)
   0x000F92EC:  10 94 0F 00 (viewOffset[5] 0x000F9410)
   0x000F92F0:  48 94 0F 00 (viewOffset[6] 0x000F9448)
   0x000F92F4:  80 94 0F 00 (viewOffset[7] 0x000F9480)
 + 0x000F92F8:  00 00 00 00 (b32 isEnabled false)
   0x000F92FC:  00 00 00 00 00 00 00 00 (v2i position (0, 0))
   0x000F9304:  00 04 00 00 00 03 00 00 (v2i size (1024, 768))
   0x000F930C:  00 00 00 00 00 00 00 00 (v2i portPosition (0, 0))
   0x000F9314:  00 04 00 00 00 03 00 00 (v2i portSize (1024, 768))
   0x000F931C:  20 00 00 00 20 00 00 00 (v2i border (32, 32))
   0x000F9324:  FF FF FF FF FF FF FF FF (v2i speed (-1, -1))
   0x000F932C:  FF FF FF FF (i32 objectId -1)
 + 0x000F9330:  00 00 00 00 (b32 isEnabled false)
   0x000F9334:  00 00 00 00 00 00 00 00 (v2i position (0, 0))
   0x000F933C:  00 04 00 00 00 03 00 00 (v2i size (1024, 768))
   0x000F9344:  00 00 00 00 00 00 00 00 (v2i portPosition (0, 0))
   0x000F934C:  00 04 00 00 00 03 00 00 (v2i portSize (1024, 768))
   0x000F9354:  20 00 00 00 20 00 00 00 (v2i border (32, 32))
   0x000F935C:  FF FF FF FF FF FF FF FF (v2i speed (-1, -1))
   0x000F9364:  FF FF FF FF (i32 objectId -1)
 + 0x000F9368:  00 00 00 00 (b32 isEnabled false)
   0x000F936C:  00 00 00 00 00 00 00 00 (v2i position (0, 0))
   0x000F9374:  00 04 00 00 00 03 00 00 (v2i size (1024, 768))
   0x000F937C:  00 00 00 00 00 00 00 00 (v2i portPosition (0, 0))
   0x000F9384:  00 04 00 00 00 03 00 00 (v2i portSize (1024, 768))
   0x000F938C:  20 00 00 00 20 00 00 00 (v2i border (32, 32))
   0x000F9394:  FF FF FF FF FF FF FF FF (v2i speed (-1, -1))
   0x000F939C:  FF FF FF FF (i32 objectId -1)
 + 0x000F93A0:  00 00 00 00 (b32 isEnabled false)
   0x000F93A4:  00 00 00 00 00 00 00 00 (v2i position (0, 0))
   0x000F93AC:  00 04 00 00 00 03 00 00 (v2i size (1024, 768))
   0x000F93B4:  00 00 00 00 00 00 00 00 (v2i portPosition (0, 0))
   0x000F93BC:  00 04 00 00 00 03 00 00 (v2i portSize (1024, 768))
   0x000F93C4:  20 00 00 00 20 00 00 00 (v2i border (32, 32))
   0x000F93CC:  FF FF FF FF FF FF FF FF (v2i speed (-1, -1))
   0x000F93D4:  FF FF FF FF (i32 objectId -1)
 + 0x000F93D8:  00 00 00 00 (b32 isEnabled false)
   0x000F93DC:  00 00 00 00 00 00 00 00 (v2i position (0, 0))
   0x000F93E4:  00 04 00 00 00 03 00 00 (v2i size (1024, 768))
   0x000F93EC:  00 00 00 00 00 00 00 00 (v2i portPosition (0, 0))
   0x000F93F4:  00 04 00 00 00 03 00 00 (v2i portSize (1024, 768))
   0x000F93FC:  20 00 00 00 20 00 00 00 (v2i border (32, 32))
   0x000F9404:  FF FF FF FF FF FF FF FF (v2i speed (-1, -1))
   0x000F940C:  FF FF FF FF (i32 objectId -1)
 + 0x000F9410:  00 00 00 00 (b32 isEnabled false)
   0x000F9414:  00 00 00 00 00 00 00 00 (v2i position (0, 0))
   0x000F941C:  00 04 00 00 00 03 00 00 (v2i size (1024, 768))
   0x000F9424:  00 00 00 00 00 00 00 00 (v2i portPosition (0, 0))
   0x000F942C:  00 04 00 00 00 03 00 00 (v2i portSize (1024, 768))
   0x000F9434:  20 00 00 00 20 00 00 00 (v2i border (32, 32))
   0x000F943C:  FF FF FF FF FF FF FF FF (v2i speed (-1, -1))
   0x000F9444:  FF FF FF FF (i32 objectId -1)
 + 0x000F9448:  00 00 00 00 (b32 isEnabled false)
   0x000F944C:  00 00 00 00 00 00 00 00 (v2i position (0, 0))
   0x000F9454:  00 04 00 00 00 03 00 00 (v2i size (1024, 768))
   0x000F945C:  00 00 00 00 00 00 00 00 (v2i portPosition (0, 0))
   0x000F9464:  00 04 00 00 00 03 00 00 (v2i portSize (1024, 768))
   0x000F946C:  20 00 00 00 20 00 00 00 (v2i border (32, 32))
   0x000F9474:  FF FF FF FF FF FF FF FF (v2i speed (-1, -1))
   0x000F947C:  FF FF FF FF (i32 objectId -1)
 + 0x000F9480:  00 00 00 00 (b32 isEnabled false)
   0x000F9484:  00 00 00 00 00 00 00 00 (v2i position (0, 0))
   0x000F948C:  00 04 00 00 00 03 00 00 (v2i size (1024, 768))
   0x000F9494:  00 00 00 00 00 00 00 00 (v2i portPosition (0, 0))
   0x000F949C:  00 04 00 00 00 03 00 00 (v2i portSize (1024, 768))
   0x000F94A4:  20 00 00 00 20 00 00 00 (v2i border (32, 32))
   0x000F94AC:  FF FF FF FF FF FF FF FF (v2i speed (-1, -1))
   0x000F94B4:  FF FF FF FF (i32 objectId -1)
-> 0x000F94B8:  01 00 00 00 (1 object)
   0x000F94BC:  C0 94 0F 00 (objectOffset[0] 0x000F94C0)
 + 0x000F94C0:  00 00 00 00 00 00 00 00 (v2i position (0, 0))
   0x000F94C8:  01 00 00 00 (i32 id 1)
   0x000F94CC:  A0 86 01 00 (i32 instanceId 100000)
   0x000F94D0:  FF FF FF FF (i32 createCodeId -1)
   0x000F94D4:  00 00 80 3F 00 00 80 3F (v2 scale (1, 1))
   0x000F94DC:  00 00 80 3F (r32 unknown 1.0)
   0x000F94E0:  00 00 00 00 (u32 unknown 0x00000000)
   0x000F94E4:  FF FF FF FF (u32 unknown 0xFFFFFFFF)
   0x000F94E8:  00 00 00 00 (u32 unknown 0x00000000)
   0x000F94EC:  FF FF FF FF (u32 unknown 0xFFFFFFFF)
-> 0x000F94F0:  00 00 00 00 (0 tiles)
-> 0x000F94F4:  02 00 00 00 (2 layers?)
   0x000F94F8:  00 95 0F 00 (layer[0] 0x000F9500)
   0x000F94FC:  2C 95 0F 00 (layer[1] 0x000F952C)
 + 0x000F9500:  48 C3 30 00 (u32 nameOffset "system_layer")
   0x000F9504:  00 00 00 00 (u32 id 0)
   0x000F9508:  02 00 00 00 (u32 type 2)
   0x000F950C:  00 00 00 00 (u32 depth 0)
   0x000F9510:  00 00 00 00 (u32 unknown3 0)
   0x000F9514:  00 00 00 00 (r32 unknownFloat 0)
   0x000F9518:  00 00 00 00 (u32 unknown5 0)
   0x000F951C:  00 00 00 00 (u32 unknown6 0)
   0x000F9520:  01 00 00 00 (u32 unknown7 1) //visible?
   0x000F9524:  01 00 00 00 (u32 numInstances 1)
   0x000F9528:  A0 86 01 00 (u32 instanceId[0] 100000)
 + 0x000F952C:  CF 9D 31 00 (u32 nameOffset "Background")
   0x000F9530:  01 00 00 00 (u32 id 1)
   0x000F9534:  01 00 00 00 (u32 type 1)
   0x000F9538:  64 00 00 00 (u32 depth 100)
   0x000F953C:  00 00 00 00 (u32 unknown3 0)
   0x000F9540:  00 00 00 00 (u32 unknown4 0)
   0x000F9544:  00 00 00 00 (u32 unknown5 0)
   0x000F9548:  00 00 00 00 (u32 unknown6 0)
   0x000F954C:  01 00 00 00 (u32 unknown7 1)
   0x000F9550:  01 00 00 00                   //Still need to determine: Horizontal Tile, Vertical Tile, Stretch
   0x000F9554:  00 00 00 00                   //X Offset, Y Offset, Horizontal Speed, Vertical Speed
   0x000F9558:  FF FF FF FF (i32 spriteId -1)
   0x000F955C:  00 00 00 00
   0x000F9560:  00 00 00 00
   0x000F9564:  00 00 00 00
   0x000F9568:  00 00 00 FF (u32 backgroundColor? Black)
   0x000F956C:  00 00 00 00
   0x000F9570:  00 00 70 41 (r32 animationSpeed? 15.0)
   0x000F9574:  00 00 00 00 (b32 isSpeedGameFrames false)
-> 0x000F9578:  00 00 00 00 (0 somethings)



# Asset Layer:
 + 0x0021B9BC: BE A5 31 00 (u32 nameOffset "Assets_1")
   0x0021B9C0: B3 04 00 00 (u32 id 1203)
   0x0021B9C4: 03 00 00 00 (u32 type 3)
   0x0021B9C8: 00 00 00 00 (u32 depth 0)
   0x0021B9CC: 00 00 00 00 (u32 unknown3 0)
   0x0021B9D0: 00 00 00 00 (u32 unknown4 0)
   0x0021B9D4: 00 00 00 00 (u32 unknown5 0)
   0x0021B9D8: 00 00 00 00 (u32 unknown6 0)
   0x0021B9DC: 01 00 00 00 (u32 unknown7 1)
   0x0021B9E0: F0 B9 21 00 (u32 unknownOffset1 0x0021B9F0)
   0x0021B9E4: F4 B9 21 00 (u32 unknownOffset2 0x0021B9F4)
   0x0021B9E8: F8 B9 21 00 (u32 unknownOffset3 0x0021B9F8)
   0x0021B9EC: FC B9 21 00 (u32 unknownOffset4 0x0021B9FC)
-> 0x0021B9F0: 00 00 00 00 (u32 numSomethings1 0)
-> 0x0021B9F4: 00 00 00 00 (u32 numSomethings2 0)
-> 0x0021B9F8: 00 00 00 00 (u32 numSomethings3 0)
-> 0x0021B9FC: 00 00 00 00 (u32 numSomethings4 0)

# Tile Layer "rm_stone_a3":
   0x21B400: EC DD 30 00 (u32 nameOffset "tiles")
   0x21B404: B1 04 00 00 (u32 id 1201)
   0x21B408: 04 00 00 00 (u32 type 4)
   0x21B40C: B0 04 00 00 (u32 depth 1200)
   0x21B410: 00 00 00 00 (u32 unknown3 0)
   0x21B414: 00 00 00 00 (u32 unknown4 0)
   0x21B418: 00 00 00 00 (u32 unknown5 0)
   0x21B41C: 00 00 00 00 (u32 unknown6 0)
   0x21B420: 01 00 00 00 (u32 unknown7 1)
   0x21B424: 04 00 00 00 (i32 tilesetId? 4)
   0x21B428: 18 00 00 00 0E 00 00 00 (v2i numTiles (24, 14))
   0x21B430:   0    0    0    0    0    0    0    0    0    0    0    0    0    0    0    0    0    0    0    0    0    0    0    0
   0x21B490:   0    0    0    0    0    0    0    0    0    0    0    0    0    0    0    0    0    0    0    0    0    0    0    0
   0x21B4F0:   3    3    22   20   20   6    69   52   69   69   235  69   69   52   52   69   235  14   52   52   52   52   52   15
   0x21B550:   3    3    19   318  318  14   69   52   69   69   69   69   69   235  69   52   69   14   52   52   52   52   52   15
   0x21B5B0:   3    3    16   17   17   22   20   20   20   20   20   6    69   69   52   69   44   14   52   52   52   52   52   15
   0x21B610:   3    3    3    3    9    19   318  150  151  152  318  22   20   20   20   6    13   22   20   20   20   20   20   23
   0x21B670:   3    3    3    11   1    16   17   166  167  168  17   19   318  318  318  14   13   19   318  318  318  318  318  21
   0x21B6D0:   3    3    3    9    1    1    1    1    1    1    1    16   17   17   17   14   13   16   17   17   17   17   17   18
   0x21B730:   3    3    3    9    1    1    1    1    1    1    1    1    1    1    1    14   27   28   13   33   33   119  33   13
   0x21B790:   3    3    3    9    1    1    1    1    1    1    1    1    1    1    1    14   43   44   33   33   119  33   119  13
   0x21B7F0:   3    3    11   211  212  1    1    1    1    1    1    1    1    1    1    22   281  6    33   33   33   119  119  13
   0x21B850:   3    3    9    227  228  1    1    1    1    1    1    1    1    1    1    16   59   14   27   28   272  13   13   13
   0x21B8B0:   3    11   1    1    1    1    1    1    1    1    1    1    1    1    1    1    1    14   43   44   88   33   33   159
   0x21B910:   3    77   13   48   49   49   49   49   49   49   49   49   49   49   49   49   49   56   13   13   13   13   13   13

# Asset Layer (68 bytes, starting at 0x0021B9BC)
	0021B9BC: Name       Id:1203    Type:3     Depth: 0
	0021B9CC: Offset(0,0)           Speed(0,0)
	0021B9DC: Unknown:1 
	0021B9E0: 0x0021B9F0   0x0021B9F4   0x0021B9F8   0x0021B9FC
	0021B9F0: 0x00000000   0x00000000   0x00000000   0x00000000
